{
  "name": "mugz.mt",
  "description": "A clean and mobile optimised theme for Lifeboat.app websites for mugz.mt",
  "author": "lifeboat.app",
  "version": "1.0.0",
  "update_url": "https://gitlab.com/lifeboat_themes/amaze/-/archive/main/amaze-main.zip",
  "version_ping_url": "https://gitlab.com/lifeboat_themes/amaze/-/raw/main/VERSION",
  "custom_fields": {
    "BenefitsTitle1": {
      "label": "Benefits Bar Title #1",
      "type": "text"
    },
    "BenefitsText1": {
      "label": "Benefits Bar Text #1",
      "type": "text"
    },
    "BenefitsTitle2": {
      "label": "Benefits Bar Title #2",
      "type": "text"
    },
    "BenefitsText2": {
      "label": "Benefits Bar Text #2",
      "type": "text"
    },
    "BenefitsTitle3": {
      "label": "Benefits Bar Title #3",
      "type": "text"
    },
    "BenefitsText3": {
      "label": "Benefits Bar Text #3",
      "type": "text"
    },
    "HomeBanner": {
      "label": "Home: Banner Image",
      "type": "image"
    },
    "HomeBannerLink": {
      "label": "Home: Banner Link",
      "type": "text"
    },
    "HomeBannerAlt": {
      "label": "Home: Banner Alt Text",
      "type": "text"
    },
    "HomeMidBanner": {
      "label": "Home: Mid-Banner Image",
      "type": "image"
    },
    "HomeMidBannerAlt": {
      "label": "Home: Mid-Banner Alt Text",
      "type": "text"
    },
    "NewArrivalsBanner": {
      "label": "Home: New Arrivals Banner",
      "type": "image"
    },
    "HomeMidBannerLink": {
      "label": "Home: Mid-Banner Link",
      "type": "text"
    },
    "FooterText": {
      "label": "Footer Text",
      "type": "text"
    },
    "FacebookURL": {
      "label": "Facebook Page URL",
      "type": "text"
    },
    "InstagramURL": {
      "label": "Instagram Page URL",
      "type": "text"
    },
    "WhatsAppURL": {
      "label": "WhatsApp URL",
      "type": "text"
    },
    "GMapsURL": {
      "label": "Gmaps Location URL",
      "type": "text"
    },
    "GMapsEmbed": {
      "label": "Contact Page: Google Maps iFrame with location",
      "type": "textarea"
    },
    "PayMethodsImage": {
      "label": "Payment Methods Image (450px x 75px)",
      "type": "image"
    },
    "FooterCol1": {
      "label": "Footer Menu 1",
      "type": "list",
      "data_source": {
        "endpoint": "/api/menu/all",
        "model": "menu",
        "key": "ID",
        "label": "Title"
      }
    },
    "FooterCol2": {
      "label": "Footer Menu 2",
      "type": "list",
      "data_source": {
        "endpoint": "/api/menu/all",
        "model": "menu",
        "key": "ID",
        "label": "Title"
      }
    },
    "FooterCol3": {
      "label": "Footer Menu 3",
      "type": "list",
      "data_source": {
        "endpoint": "/api/menu/all",
        "model": "menu",
        "key": "ID",
        "label": "Title"
      }
    },
    "FooterCol4": {
      "label": "Footer Menu 4",
      "type": "list",
      "data_source": {
        "endpoint": "/api/menu/all",
        "model": "menu",
        "key": "ID",
        "label": "Title"
      }
    },
    "SubCategoryList": {
      "label": "Sub-Categories",
      "type": "list",
      "data_source": {
        "endpoint": "/api/menu/all",
        "model": "menu",
        "key": "ID",
        "label": "Title"
      },
      "attach_to": "Collection"
    },
    "ParentCategory": {
      "label": "Parent Category",
      "type": "list",
      "data_source": {
        "endpoint": "/api/collections/all",
        "model": "collection",
        "key": "ID",
        "label": "Title"
      },
      "attach_to": "Collection"
    }
  }
}
